firstName,lastName,username,email,ROLE_USER
Ivo,Ivic,iivic,iivic@nevazeca.domena,ROLE_USER
Ivica,Topic,itopic,itop@nevazeca.domena,ROLE_MODERATOR
Luka,Juric,ljur,ljur@nevazeca.domena,ROLE_MODERATOR
Petra,Glavinic,pegla,pegla@nevazeca.domena,ROLE_MODERATOR
Jurica,Kukura,kuks,kukluks@nevazeca.domena,ROLE_MODERATOR
Pero,Repic,pepic,pepic@nevazeca.domena,ROLE_USER
Hrvoje,Horvat,hhorvat,hhorvat@nevazeca.domena,ROLE_USER;ROLE_ADMIN
Mihaela,Mihajlovic,mmihajlovic,mmihajlovic@nevazeca.domena,ROLE_USER
Matija,Bartolac,mbartolac,matija.bartolac@gmail.com,ROLE_USER;ROLE_MODERATOR;ROLE_ADMIN

